{
	// Place your snippets for php here. Each snippet is defined under a snippet name and has a prefix, body and 
	// description. The prefix is what is used to trigger the snippet and the body will be expanded and inserted. Possible variables are:
	// $1, $2 for tab stops, $0 for the final cursor position, and ${1:label}, ${2:another} for placeholders. Placeholders with the 
	// same ids are connected.
	// Example:
	// "Print to console": {
	// 	"prefix": "log",
	// 	"body": [
	// 		"console.log('$1');",
	// 		"$2"
	// 	],
	// 	"description": "Log output to console"
	// }
	"debug code var_dump with tag pre": {
		"prefix": "ddd",
		"body": "echo \"<pre>\", var_dump(), \"</pre>\";",
		"description": "debug code var_dump with tag pre"
	},
	"crud em php usando pdo": {
		"prefix": "crud_php_backend",
		"body": [
			"define('DB_HOST', 'localhost');",
			"define('DB_SCHEMA', 'dbtest');",
			"define('DB_USER', 'root');",
			"define('DB_PASSWORD', '');",
			"define('DB_ENCODING', 'utf8mb4');",
			"define('DB_TABLE', 'table1');",
			"",
			"function getConn()",
			"{",
			"try {",
			"\\$schema = \\$dbSchema ? \"dbname=\" . DB_SCHEMA . \";\" : \"\";",
			"\\$conn = new PDO(\"mysql:host=\" . DB_HOST . \";\\$schema\" . \"\" . \"charset=\" . DB_ENCODING, DB_USER, DB_PASSWORD, array(PDO::MYSQL_ATTR_INIT_COMMAND => \"SET NAMES 'utf8mb4'\"));",
			"\\$conn->setAttribute(PDO::ATTR_ERRMODE, PDO::ERRMODE_EXCEPTION);",
			"return \\$conn;",
			"} catch (PDOException \\$e) {",
			"return null;",
			"}",
			"}",
			"",
			"function verifyDbExist()",
			"{",
			"try {",
			"\\$conn = getConn(false);",
			"\\$query = \"SHOW DATABASES LIKE '\" . DB_SCHEMA . \"';\";",
			"\\$stmt = \\$conn->prepare(\\$query);",
			"\\$stmt->execute();",
			"if (\\$stmt->rowCount() > 0) {",
			"return true;",
			"}",
			"return false;",
			"} catch (PDOException \\$e) {",
			"return false;",
			"}",
			"}",
			"",
			"function createDatabase()",
			"{",
			"try {",
			"\\$conn = new PDO(\"mysql:host=\" . DB_HOST . \";charset=utf8mb4\", DB_USER, DB_PASSWORD, array(PDO::MYSQL_ATTR_INIT_COMMAND => \"SET NAMES 'utf8mb4'\"));",
			"\\$conn->setAttribute(PDO::ATTR_ERRMODE, PDO::ERRMODE_EXCEPTION);",
			"\\$query = \"CREATE DATABASE IF NOT EXISTS `\" . DB_SCHEMA . \"` CHARACTER SET utf8mb4 COLLATE utf8mb4_general_ci;\";",
			"\\$stmt = \\$conn->prepare(\\$query);",
			"\\$stmt->execute();",
			"if (\\$stmt->rowCount() > 0) {",
			"return true;",
			"}",
			"return false;",
			"} catch (PDOException \\$e) {",
			"return false;",
			"}",
			"}",
			"",
			"function verifyTableExists()",
			"{",
			"try {",
			"\\$conn = getConn();",
			"\\$query = \"SHOW TABLES LIKE '\" . DB_TABLE . \"';\";",
			"\\$stmt = \\$conn->prepare(\\$query);",
			"\\$stmt->execute();",
			"if (\\$stmt->rowCount() > 0) {",
			"return true;",
			"}",
			"return false;",
			"} catch (PDOException \\$e) {",
			"return false;",
			"}",
			"}",
			"",
			"function createTable(array \\$fieldsName, array \\$fieldTypes)",
			"{",
			"try {",
			"\\$conn = getConn();",
			"\\$sql = \"CREATE TABLE IF NOT EXISTS `\" . DB_TABLE . \"` (\";",
			"foreach (\\$fieldsName as \\$key => \\$value) {",
			"\\$sql .= \"`{\\$fieldsName[\\$key]}` {\\$fieldTypes[\\$key]},\";",
			"}",
			"\\$sql = substr(\\$sql, 0, -1);",
			"\\$sql .= \")ENGINE=InnoDB DEFAULT CHARSET=utf8 COLLATE=utf8_unicode_ci;\";",
			"\\$stmt = \\$conn->query(\\$sql);",
			"if (\\$stmt) {",
			"return true;",
			"}",
			"return false;",
			"} catch (PDOException \\$e) {",
			"return false;",
			"}",
			"}",
			"",
			"if (!verifyDbExist()) {",
			"\\$db = createDatabase();",
			"if (!\\$db) {",
			"echo \"Database not created\";",
			"exit();",
			"}",
			"}",
			"",
			"if (!verifyTableExists()) {",
			"\\$table = createTable(",
			"array(\"id\", \"user\", \"password\"),",
			"array(",
			"\"int(11) NOT NULL AUTO_INCREMENT PRIMARY KEY\",",
			"\"varchar(50) COLLATE utf8_unicode_ci NOT NULL\",",
			"\"varchar(500) COLLATE utf8_unicode_ci NOT NULL\"",
			")",
			");",
			"if (!\\$table) {",
			"echo \"Table not created\";",
			"exit();",
			"}",
			"}",
			"",
			"if (isset(\\$_POST['verifyUser']) && isset(\\$_POST['user']) && isset(\\$_POST['password'])) {",
			"\\$user = \\$_POST['user'];",
			"\\$password = \\$_POST['password'];",
			"try {",
			"\\$conn = getConn();",
			"\\$query = \"SELECT * FROM \" . DB_TABLE . \" WHERE user=:user AND password=:password\";",
			"\\$stmt = \\$conn->prepare(\\$query);",
			"\\$stmt->bindValue(\":user\", \\$user, PDO::PARAM_STR);",
			"\\$stmt->bindValue(\":password\", \\$password, PDO::PARAM_STR);",
			"\\$stmt->execute();",
			"if (\\$stmt->rowCount() > 0) {",
			"header('Content-type: application/json');",
			"echo json_encode(array(\"status\" => true, \"message\" => \"User verified\", \"data\" => \\$stmt->fetch(PDO::FETCH_OBJ)));",
			"//setcookie(\"msgUser\", json_decode(\\$stmt->fetch(PDO::FETCH_OBJ)), time() + 60);",
			"} else {",
			"header('Content-type: application/json');",
			"echo json_encode(array(\"status\" => false, \"message\" => \"User not found\", \"data\" => \"\"));",
			"}",
			"",
			"//setcookie(\"msgUser\", json_encode(array(\"error\" => \"User not found\")), time() + 60);",
			"//header(\"Location: index.html\");",
			"} catch (PDOException \\$e) {",
			"//setcookie(\"msgUser\", json_encode(array(\"PDOException\" => \\$e->getMessage())), time() + 60);",
			"header('Content-type: application/json');",
			"echo json_encode(array(\"status\" => false, \"message\" => \\$e->getMessage(), \"data\" => \\$e));",
			"//header(\"Location: index.html\");",
			"}",
			"}",
			"",
			"if (isset(\\$_POST['createUser']) && isset(\\$_POST['user']) && isset(\\$_POST['password'])) {",
			"\\$user = \\$_POST['user'];",
			"\\$password = \\$_POST['password'];",
			"try {",
			"\\$conn = getConn();",
			"\\$query = \"INSERT INTO \" . DB_TABLE . \" (user, password) VALUES (:user, :password);\";",
			"\\$stmt = \\$conn->prepare(\\$query);",
			"\\$stmt->bindValue(\":user\", \\$user, PDO::PARAM_STR);",
			"\\$stmt->bindValue(\":password\", \\$password, PDO::PARAM_STR);",
			"\\$insert = \\$stmt->execute();",
			"if (\\$insert) {",
			"header('Content-type: application/json');",
			"echo json_encode(array(\"status\" => true, \"message\" => \"User created\", \"data\" => \"\"));",
			"//setcookie(\"msgUser\", json_decode(\\$stmt->fetch(PDO::FETCH_OBJ)), time() + 60);",
			"} else {",
			"header('Content-type: application/json');",
			"echo json_encode(array(\"status\" => false, \"message\" => \"Error inserting user\", \"data\" => \"\"));",
			"}",
			"",
			"//setcookie(\"msgUser\", json_encode(array(\"error\" => \"User not found\")), time() + 60);",
			"//header(\"Location: index.html\");",
			"} catch (PDOException \\$e) {",
			"//setcookie(\"msgUser\", json_encode(array(\"PDOException\" => \\$e->getMessage())), time() + 60);",
			"header('Content-type: application/json');",
			"echo json_encode(array(\"status\" => false, \"message\" => \\$e->getMessage(), \"data\" => \\$e));",
			"//header(\"Location: index.html\");",
			"}",
			"}",
			"",
			"if (isset(\\$_POST['listUsers'])) {",
			"\\$user = \\$_POST['user'];",
			"\\$password = \\$_POST['password'];",
			"try {",
			"\\$conn = getConn();",
			"\\$query = \"SELECT * FROM \" . DB_TABLE . \";\";",
			"\\$stmt = \\$conn->prepare(\\$query);",
			"\\$stmt->execute();",
			"if (\\$stmt->rowCount() > 0) {",
			"header('Content-type: application/json');",
			"echo json_encode(array(\"status\" => true, \"message\" => \"users list\", \"data\" => \\$stmt->fetchAll(PDO::FETCH_OBJ)));",
			"//setcookie(\"msgUser\", json_decode(\\$stmt->fetch(PDO::FETCH_OBJ)), time() + 60);",
			"} else {",
			"header('Content-type: application/json');",
			"echo json_encode(array(\"status\" => false, \"message\" => \"Error inserting user\", \"data\" => \"\"));",
			"}",
			"",
			"//setcookie(\"msgUser\", json_encode(array(\"error\" => \"User not found\")), time() + 60);",
			"//header(\"Location: index.html\");",
			"} catch (PDOException \\$e) {",
			"//setcookie(\"msgUser\", json_encode(array(\"PDOException\" => \\$e->getMessage())), time() + 60);",
			"header('Content-type: application/json');",
			"echo json_encode(array(\"status\" => false, \"message\" => \\$e->getMessage(), \"data\" => \\$e));",
			"//header(\"Location: index.html\");",
			"}",
			"}",
			"",
			"if (isset(\\$_POST['updateUser']) && isset(\\$_POST['userID']) && isset(\\$_POST['newUser']) && isset(\\$_POST['newPassword'])) {",
			"\\$userID = \\$_POST['userID'];",
			"\\$newUser = \\$_POST['newUser'];",
			"\\$newPassword = \\$_POST['newPassword'];",
			"try {",
			"\\$conn = getConn();",
			"\\$query = \"UPDATE \" . DB_TABLE . \" SET user=:user, password=:password WHERE id=:id;\";",
			"\\$stmt = \\$conn->prepare(\\$query);",
			"\\$stmt->bindValue(\":id\", \\$userID, PDO::PARAM_INT);",
			"\\$stmt->bindValue(\":user\", \\$newUser, PDO::PARAM_STR);",
			"\\$stmt->bindValue(\":password\", \\$newPassword, PDO::PARAM_STR);",
			"\\$insert = \\$stmt->execute();",
			"if (\\$insert) {",
			"//header('Content-type: application/json');",
			"//setcookie(\"msgUser\", json_encode(array(\"status\" => true, \"message\" => \"User created\", \"data\" => \"\")), time() + 60);",
			"} else {",
			"//header('Content-type: application/json');",
			"//setcookie(\"msgUser\", json_encode(array(\"status\" => false, \"message\" => \"Error inserting user\", \"data\" => \"\")), time() + 60);",
			"}",
			"",
			"//setcookie(\"msgUser\", json_encode(array(\"error\" => \"User not found\")), time() + 60);",
			"header(\"Location: index.html\");",
			"} catch (PDOException \\$e) {",
			"//setcookie(\"msgUser\", json_encode(array(\"PDOException\" => \\$e->getMessage())), time() + 60);",
			"//header('Content-type: application/json');",
			"//setcookie(\"msgUser\", json_encode(array(\"status\" => false, \"message\" => \\$e->getMessage(), \"data\" => \\$e)), time() + 60);",
			"header(\"Location: index.html\");",
			"}",
			"}",
			"",
			"if (isset(\\$_GET['removeUser']) && isset(\\$_GET['userID'])) {",
			"\\$userID = \\$_GET['userID'];",
			"try {",
			"\\$conn = getConn();",
			"\\$query = \"DELETE FROM \" . DB_TABLE . \" WHERE id=:userID;\";",
			"\\$stmt = \\$conn->prepare(\\$query);",
			"\\$stmt->bindValue(\":userID\", \\$userID, PDO::PARAM_INT);",
			"\\$insert = \\$stmt->execute();",
			"header(\"Location: index.html\");",
			"} catch (PDOException \\$e) {",
			"header(\"Location: index.html\");",
			"}",
			"}",
		],
		"description": "crud em php usando pdo"
	}
}